<?xml version="1.0" encoding="UTF-8"?>
<model ref="r:88b1a9ba-bf5e-46c2-b026-86528a40e9e8(Range_Iterator_Language.behavior)">
  <persistence version="9" />
  <languages>
    <use id="af65afd8-f0dd-4942-87d9-63a55f2a9db1" name="jetbrains.mps.lang.behavior" version="1" />
    <devkit ref="2677cb18-f558-4e33-bc38-a5139cee06dc(jetbrains.mps.devkit.language-design)" />
  </languages>
  <imports />
  <registry />
</model>

